[
	{
		"id": 1,
		"name": "Expedita amet quas id a.",
		"description": "Ea ab omnis saepe rem vel et.\nIllo quaerat eos accusantium reiciendis dolores quibusdam ratione.",
		"createdAt": "2020-07-01T03:15:53.2885115+00:00",
		"deadline": "2021-02-02T00:57:55.0677911+00:00",
		"authorId": 29,
		"teamId": 8
	},
	{
		"id": 2,
		"name": "Totam autem hic atque suscipit.",
		"description": "Aut quia id adipisci alias non mollitia.\nAlias et at quia soluta quisquam aspernatur nemo molestias.\nVel id suscipit vero ipsa repudiandae nesciunt.\nProvident veritatis maiores aut.\nIste et incidunt.",
		"createdAt": "2020-06-30T23:19:09.5122629+00:00",
		"deadline": "2021-04-30T01:56:33.3939752+00:00",
		"authorId": 19,
		"teamId": 4
	},
	{
		"id": 3,
		"name": "Eos illum eum minima quibusdam.",
		"description": "Quis dicta repudiandae consequatur et odio repudiandae occaecati.\nDolore fugit veniam dolorem aperiam consequatur cum sed officiis ut.\nExercitationem ea ducimus saepe id asperiores dignissimos molestiae repellat.",
		"createdAt": "2020-07-01T12:59:04.683596+00:00",
		"deadline": "2020-11-07T12:49:38.5028811+00:00",
		"authorId": 3,
		"teamId": 1
	},
	{
		"id": 4,
		"name": "Quia repellendus odit et eligendi.",
		"description": "Voluptatem eaque accusamus maiores quo beatae quos doloremque.\nEos pariatur ea saepe atque.\nDelectus quidem voluptatem harum architecto repellat.\nCupiditate culpa consectetur illo occaecati et.\nCumque inventore voluptas tenetur.\nFacilis quaerat sed praesentium.",
		"createdAt": "2020-06-30T20:20:06.0433222+00:00",
		"deadline": "2020-09-05T12:42:26.2763701+00:00",
		"authorId": 33,
		"teamId": 6
	},
	{
		"id": 5,
		"name": "Aspernatur vero quas et ipsum.",
		"description": "Qui rem mollitia inventore nulla nam nam excepturi.\nQuibusdam distinctio iste quo dolor.\nBeatae consequatur qui est quo amet et quia.",
		"createdAt": "2020-07-01T04:41:59.5052577+00:00",
		"deadline": "2021-05-04T02:01:44.6833676+00:00",
		"authorId": 49,
		"teamId": 6
	},
	{
		"id": 6,
		"name": "Reprehenderit nam architecto sed aut.",
		"description": "Molestiae incidunt praesentium dolor odit culpa voluptatibus maxime et nam.\nAut nam et laudantium omnis et sed.\nOdio perspiciatis iure exercitationem possimus dicta minima.",
		"createdAt": "2020-07-01T00:31:42.9236504+00:00",
		"deadline": "2020-07-30T00:13:23.134301+00:00",
		"authorId": 14,
		"teamId": 9
	},
	{
		"id": 7,
		"name": "Quaerat omnis enim sint ex.",
		"description": "Modi nisi quasi vero odio amet excepturi.\nOfficiis et a molestiae rerum.\nSuscipit ea aut autem ipsa itaque nihil.\nEum et nihil eveniet accusantium ea quod temporibus.",
		"createdAt": "2020-07-01T09:22:12.920059+00:00",
		"deadline": "2021-03-30T16:55:08.2800325+00:00",
		"authorId": 14,
		"teamId": 1
	},
	{
		"id": 8,
		"name": "Ad vero qui culpa odit.",
		"description": "Odio numquam quis quia ut sapiente facilis molestiae esse.\nPerspiciatis enim totam repudiandae non sint similique.",
		"createdAt": "2020-07-01T10:44:14.7854397+00:00",
		"deadline": "2020-08-26T03:56:19.7029479+00:00",
		"authorId": 28,
		"teamId": 2
	},
	{
		"id": 9,
		"name": "In vitae neque soluta et.",
		"description": "Deleniti voluptates tempora enim voluptas.\nVoluptatem atque praesentium vel.\nItaque eum deleniti voluptas veniam.\nSapiente mollitia dolore placeat.\nAut molestiae error eaque cum.",
		"createdAt": "2020-07-01T12:02:01.7186234+00:00",
		"deadline": "2021-05-12T06:50:23.127598+00:00",
		"authorId": 7,
		"teamId": 3
	},
	{
		"id": 10,
		"name": "Atque ut nisi dignissimos quas.",
		"description": "Rem ipsam et ipsa inventore.\nQuibusdam id omnis fuga.\nEt a porro ut deleniti.",
		"createdAt": "2020-07-01T04:01:16.6284161+00:00",
		"deadline": "2021-01-17T17:40:52.3743928+00:00",
		"authorId": 7,
		"teamId": 1
	},
	{
		"id": 11,
		"name": "Nihil aut voluptatum ea ex.",
		"description": "Accusamus cumque eaque eaque qui consequatur non quos veniam deserunt.\nVeniam eligendi harum sapiente quaerat ab laborum voluptas.\nQuisquam eius facere quibusdam corporis.",
		"createdAt": "2020-06-30T19:25:12.9244273+00:00",
		"deadline": "2020-12-21T19:28:16.8063283+00:00",
		"authorId": 24,
		"teamId": 6
	},
	{
		"id": 12,
		"name": "Quo dolore est consequatur dolore.",
		"description": "Id officia et autem doloremque tempora maiores rerum voluptas vero.\nDolorem maxime perspiciatis nihil autem.\nAsperiores eius et.\nEt minus ut cupiditate commodi dolorem dignissimos ut perferendis rem.\nNihil inventore occaecati laudantium dolor sed.\nDolores incidunt et tenetur.",
		"createdAt": "2020-06-30T22:36:42.9762718+00:00",
		"deadline": "2020-12-11T21:47:19.0620571+00:00",
		"authorId": 7,
		"teamId": 4
	},
	{
		"id": 13,
		"name": "Sed velit blanditiis nam vel.",
		"description": "Hic dolores vero dicta ut.\nIn ut ut dolorem eum eveniet praesentium nobis.",
		"createdAt": "2020-06-30T18:48:44.5065314+00:00",
		"deadline": "2020-07-10T12:14:42.6454282+00:00",
		"authorId": 49,
		"teamId": 7
	},
	{
		"id": 14,
		"name": "Est est quam vitae nostrum.",
		"description": "Non sed impedit doloremque.\nAliquid expedita velit et odit accusantium est explicabo ut iste.\nEligendi quia consequuntur.",
		"createdAt": "2020-07-01T02:49:16.0884965+00:00",
		"deadline": "2020-07-24T08:08:14.0391495+00:00",
		"authorId": 12,
		"teamId": 9
	},
	{
		"id": 15,
		"name": "Explicabo qui nulla quia ipsa.",
		"description": "Et quia sunt officiis inventore magni eligendi excepturi et.\nQui atque accusantium in repellat aliquid.\nModi numquam et qui omnis neque modi.",
		"createdAt": "2020-07-01T11:15:39.8957608+00:00",
		"deadline": "2021-06-21T04:46:47.5714678+00:00",
		"authorId": 18,
		"teamId": 4
	},
	{
		"id": 16,
		"name": "In ipsa quia et odit.",
		"description": "Qui aperiam eius non.\nEa sit tempore et suscipit possimus.\nNatus aspernatur aspernatur sit hic eum cum consequuntur odit.\nAliquid ut optio.",
		"createdAt": "2020-06-30T23:53:34.8809671+00:00",
		"deadline": "2021-03-24T18:40:54.4003547+00:00",
		"authorId": 4,
		"teamId": 10
	},
	{
		"id": 17,
		"name": "Ullam aut autem ducimus laboriosam.",
		"description": "Exercitationem perferendis repellendus modi unde.\nMolestias rerum numquam.",
		"createdAt": "2020-06-30T23:55:59.2007821+00:00",
		"deadline": "2021-01-10T21:11:07.5884966+00:00",
		"authorId": 42,
		"teamId": 6
	},
	{
		"id": 18,
		"name": "Quo modi temporibus molestiae blanditiis.",
		"description": "Nobis ipsam excepturi cumque quia dolore veritatis aliquid modi.\nEum modi sint dolor aperiam itaque.",
		"createdAt": "2020-07-01T03:07:28.657972+00:00",
		"deadline": "2020-07-16T17:41:02.3251938+00:00",
		"authorId": 23,
		"teamId": 6
	},
	{
		"id": 19,
		"name": "Sed laudantium est ipsum necessitatibus.",
		"description": "Eveniet beatae quia hic doloribus quia.\nHarum reiciendis quas dicta eveniet ullam.\nNesciunt nam quo.\nEt mollitia eligendi soluta.",
		"createdAt": "2020-07-01T14:08:30.91087+00:00",
		"deadline": "2020-10-13T21:55:10.6097202+00:00",
		"authorId": 38,
		"teamId": 10
	},
	{
		"id": 20,
		"name": "Fugit labore modi et nisi.",
		"description": "Autem neque ad eveniet et reprehenderit sit sint voluptatem.\nIusto tenetur natus.\nDoloribus vel quibusdam pariatur voluptatem.\nUt omnis eius temporibus in.\nAut sunt neque voluptate ut neque minima eos quas et.\nVoluptas voluptate possimus animi vitae perspiciatis fuga pariatur autem velit.",
		"createdAt": "2020-06-30T17:29:54.296609+00:00",
		"deadline": "2021-02-05T12:38:49.3677424+00:00",
		"authorId": 7,
		"teamId": 9
	},
	{
		"id": 21,
		"name": "Dolor voluptatem sed autem aperiam.",
		"description": "Voluptatem blanditiis minima molestiae ex maxime.\nAd cum nihil est consequuntur dolores aperiam dignissimos.\nTempore rerum eius deserunt earum.\nError excepturi delectus ullam voluptatibus similique voluptas quod nisi.\nSint qui dignissimos tenetur voluptatum tempore.\nQuibusdam et in sed doloribus dolorem repellat consequatur.",
		"createdAt": "2020-07-01T04:22:40.1977578+00:00",
		"deadline": "2020-11-21T07:12:47.7783127+00:00",
		"authorId": 17,
		"teamId": 1
	},
	{
		"id": 22,
		"name": "Et vel ex perspiciatis sed.",
		"description": "Sapiente illo omnis dolores et recusandae beatae corporis quia.\nDeserunt quos temporibus.\nNesciunt quam libero.\nLibero sunt nobis delectus recusandae.\nIncidunt repellendus aut odio expedita natus at.\nVeritatis impedit impedit tempore eaque repellendus qui sit repudiandae cupiditate.",
		"createdAt": "2020-06-30T17:54:36.982412+00:00",
		"deadline": "2021-04-16T05:19:29.1406213+00:00",
		"authorId": 14,
		"teamId": 9
	},
	{
		"id": 23,
		"name": "Ut vero maxime qui nobis.",
		"description": "Voluptatem vitae asperiores quia ipsum ut facilis ab rerum.\nFacilis dolore soluta molestiae beatae nostrum corrupti eum.",
		"createdAt": "2020-06-30T18:16:19.7235945+00:00",
		"deadline": "2021-05-20T05:14:25.9140373+00:00",
		"authorId": 11,
		"teamId": 5
	},
	{
		"id": 24,
		"name": "Neque quia nam autem iure.",
		"description": "Eligendi voluptatem debitis.\nIpsa quod et porro omnis et aut dolores.\nAd aut qui sit.\nEsse amet error.",
		"createdAt": "2020-06-30T22:48:27.3096078+00:00",
		"deadline": "2020-10-03T23:04:02.9426907+00:00",
		"authorId": 1,
		"teamId": 9
	},
	{
		"id": 25,
		"name": "Vel nam sint illum blanditiis.",
		"description": "Consequuntur accusantium rerum vel assumenda culpa rerum.\nDucimus in recusandae sint alias quisquam aliquid eum.\nDoloremque est tempore ut suscipit.",
		"createdAt": "2020-06-30T15:30:00.5996776+00:00",
		"deadline": "2020-12-15T19:51:29.8353407+00:00",
		"authorId": 22,
		"teamId": 3
	},
	{
		"id": 26,
		"name": "Impedit distinctio beatae impedit eveniet.",
		"description": "Consequatur quis odit sit et quis.\nDeleniti qui id maiores quia dolores.",
		"createdAt": "2020-07-01T12:48:54.3591006+00:00",
		"deadline": "2021-04-20T05:13:48.0152762+00:00",
		"authorId": 12,
		"teamId": 1
	},
	{
		"id": 27,
		"name": "Rerum repellendus consequatur nihil perspiciatis.",
		"description": "Molestias magni optio accusamus reiciendis laborum id.\nQuo accusantium harum aliquid dolore illo omnis expedita.\nAdipisci et mollitia rem.\nPossimus enim totam.\nQuibusdam quasi aut quis dolor qui culpa sed.",
		"createdAt": "2020-07-01T07:49:41.6860122+00:00",
		"deadline": "2021-04-26T18:47:56.2775449+00:00",
		"authorId": 19,
		"teamId": 7
	},
	{
		"id": 28,
		"name": "Et fugit repellat nemo atque.",
		"description": "Necessitatibus dolor tempora eos.\nAnimi excepturi corporis adipisci.\nIn quis nihil.\nNisi illum nam sunt unde dolore.",
		"createdAt": "2020-07-01T00:53:54.6600029+00:00",
		"deadline": "2021-04-23T18:48:15.9045333+00:00",
		"authorId": 39,
		"teamId": 8
	},
	{
		"id": 29,
		"name": "Voluptate voluptatibus quidem eligendi magni.",
		"description": "Fuga quis aut culpa.\nSimilique non voluptatibus est enim occaecati iure iusto quam.\nMagnam ipsum nesciunt exercitationem sit minus recusandae modi ex sed.\nAsperiores qui ratione.",
		"createdAt": "2020-07-01T08:59:23.8039071+00:00",
		"deadline": "2021-06-18T07:41:54.4413721+00:00",
		"authorId": 41,
		"teamId": 2
	},
	{
		"id": 30,
		"name": "Recusandae est vitae quia illum.",
		"description": "Blanditiis deserunt eos aut nostrum.\nAd vel voluptate minus totam provident.\nVoluptatem et eligendi et maxime laudantium repellendus sunt possimus.\nEst blanditiis nisi temporibus quas est sint non aliquid.",
		"createdAt": "2020-07-01T00:14:25.6679402+00:00",
		"deadline": "2021-03-03T07:31:37.5205404+00:00",
		"authorId": 3,
		"teamId": 9
	},
	{
		"id": 31,
		"name": "Architecto dolore et minus quibusdam.",
		"description": "Esse dolores veniam.\nSit et vitae sit in.",
		"createdAt": "2020-07-01T11:11:16.1072448+00:00",
		"deadline": "2020-11-08T06:45:25.8958733+00:00",
		"authorId": 36,
		"teamId": 7
	},
	{
		"id": 32,
		"name": "Possimus eos occaecati rerum deserunt.",
		"description": "Quos aut sed eos.\nIure nostrum dolorum illum soluta qui maiores iure quo.\nTempora ipsum alias blanditiis consequatur similique.\nAliquid asperiores delectus consequatur sit eum recusandae qui sed eos.\nVoluptatem iste est.",
		"createdAt": "2020-06-30T21:52:20.8901897+00:00",
		"deadline": "2020-11-16T16:53:34.247546+00:00",
		"authorId": 22,
		"teamId": 6
	},
	{
		"id": 33,
		"name": "Quia laudantium velit saepe fuga.",
		"description": "Maiores suscipit voluptates aliquid rerum.\nVoluptas mollitia deserunt qui.\nEveniet quam sed.\nNobis sunt error officia sapiente commodi sequi vel pariatur placeat.\nMolestias quibusdam odit cumque blanditiis consequatur.",
		"createdAt": "2020-06-30T15:50:36.816416+00:00",
		"deadline": "2020-09-29T22:37:07.6319051+00:00",
		"authorId": 4,
		"teamId": 2
	},
	{
		"id": 34,
		"name": "Voluptatem vel ipsum alias voluptatem.",
		"description": "Nesciunt aliquam cupiditate eos maxime corporis omnis odit sit eaque.\nNon eum cupiditate veritatis animi et et delectus corrupti.\nAsperiores facere et ut consequatur vero distinctio quo reprehenderit officia.\nItaque adipisci et deserunt tempora nemo voluptas dolores.",
		"createdAt": "2020-07-01T13:22:14.9836659+00:00",
		"deadline": "2020-10-29T03:03:12.5118312+00:00",
		"authorId": 30,
		"teamId": 2
	},
	{
		"id": 35,
		"name": "Corrupti ratione quis non sapiente.",
		"description": "Quis exercitationem itaque quasi neque quas officiis autem.\nDignissimos sed qui itaque qui veritatis doloribus harum.\nTotam autem consectetur et rem neque corporis accusamus quam.\nVelit quidem voluptas optio.\nPorro numquam in alias quia quos sunt ex sint accusantium.",
		"createdAt": "2020-07-01T06:36:52.8001773+00:00",
		"deadline": "2020-07-19T16:21:51.7045515+00:00",
		"authorId": 11,
		"teamId": 2
	},
	{
		"id": 36,
		"name": "Aut molestiae sequi id expedita.",
		"description": "Atque molestias qui omnis assumenda exercitationem.\nImpedit deserunt aut.\nNihil praesentium eius.\nDistinctio doloribus excepturi vel.",
		"createdAt": "2020-07-01T10:04:14.970303+00:00",
		"deadline": "2020-11-15T14:41:49.25903+00:00",
		"authorId": 1,
		"teamId": 7
	},
	{
		"id": 37,
		"name": "Nihil tenetur odit soluta ut.",
		"description": "Eveniet libero velit.\nUt impedit in modi ex velit aut.\nMolestiae molestiae recusandae temporibus id delectus est assumenda.\nTempora minima quia eum.\nLibero in dolorem distinctio laborum ut reiciendis perspiciatis sed.",
		"createdAt": "2020-06-30T18:29:28.5488603+00:00",
		"deadline": "2020-12-11T11:12:42.4632132+00:00",
		"authorId": 12,
		"teamId": 10
	},
	{
		"id": 38,
		"name": "Non vitae voluptas sequi dolor.",
		"description": "Maxime voluptates quos neque quis.\nSaepe delectus debitis tempore reprehenderit beatae ratione quam.\nDolor in eligendi.",
		"createdAt": "2020-06-30T14:52:40.1708358+00:00",
		"deadline": "2021-01-30T20:44:57.3291288+00:00",
		"authorId": 24,
		"teamId": 7
	},
	{
		"id": 39,
		"name": "Quisquam corrupti error consequatur reiciendis.",
		"description": "In quasi aut possimus aut et possimus voluptates.\nNostrum eveniet est perferendis nam provident inventore ratione.",
		"createdAt": "2020-07-01T05:26:22.002264+00:00",
		"deadline": "2021-04-12T05:20:27.5636432+00:00",
		"authorId": 29,
		"teamId": 5
	},
	{
		"id": 40,
		"name": "Consequatur praesentium mollitia eveniet impedit.",
		"description": "Alias animi error minus.\nMinima deleniti animi quis voluptatem eos aliquid minima ut.\nEa nobis qui et quo consectetur et quam.",
		"createdAt": "2020-06-30T16:50:55.918679+00:00",
		"deadline": "2020-07-11T18:15:10.620348+00:00",
		"authorId": 21,
		"teamId": 7
	},
	{
		"id": 41,
		"name": "Doloremque laborum quas vero ullam.",
		"description": "Et veritatis qui dolorem debitis minus amet.\nAssumenda dolorem rerum numquam non quidem et inventore voluptates beatae.\nEst repellat sunt.\nSed quia qui et.\nDoloribus repellendus praesentium quo est impedit.",
		"createdAt": "2020-06-30T19:51:50.7099148+00:00",
		"deadline": "2020-11-10T04:02:10.3554444+00:00",
		"authorId": 34,
		"teamId": 7
	},
	{
		"id": 42,
		"name": "Rerum sint non quaerat distinctio.",
		"description": "Velit quam qui ea omnis deserunt.\nEt illo sunt suscipit aut consectetur nulla minus ut.\nEarum voluptatibus commodi aut error et minima hic.\nReprehenderit dolores eos quia id voluptates.",
		"createdAt": "2020-07-01T02:06:59.4517092+00:00",
		"deadline": "2021-01-31T10:50:07.7502113+00:00",
		"authorId": 8,
		"teamId": 2
	},
	{
		"id": 43,
		"name": "Ea quae iusto consectetur soluta.",
		"description": "Dolores accusantium quibusdam deleniti cum non nobis.\nIpsam soluta incidunt qui harum et et qui ipsum.\nEst odit non quo.\nExercitationem ipsa quisquam perferendis debitis eligendi.",
		"createdAt": "2020-06-30T21:17:23.074037+00:00",
		"deadline": "2021-01-02T21:38:36.2072038+00:00",
		"authorId": 40,
		"teamId": 7
	},
	{
		"id": 44,
		"name": "Ut consequatur magnam sequi ut.",
		"description": "Blanditiis sit quam incidunt ex error quos et dolores deserunt.\nDoloribus aperiam corrupti nam ullam.\nQuas odio a adipisci aut aspernatur consequatur.\nUnde quis nam omnis laborum ullam ut atque est et.\nQuam consectetur itaque deleniti tempora numquam eum.",
		"createdAt": "2020-07-01T09:32:21.1684232+00:00",
		"deadline": "2020-08-07T03:25:54.5517858+00:00",
		"authorId": 13,
		"teamId": 9
	},
	{
		"id": 45,
		"name": "Quisquam corporis quasi est est.",
		"description": "Qui est ut est nisi aut consectetur eum dolore.\nExercitationem repellat quas enim quo et debitis velit error a.\nVoluptatibus nihil repellat similique vitae eveniet est ea.\nDelectus et et est asperiores alias.",
		"createdAt": "2020-06-30T22:59:12.6470648+00:00",
		"deadline": "2020-11-11T13:01:49.1112523+00:00",
		"authorId": 41,
		"teamId": 9
	},
	{
		"id": 46,
		"name": "Quis in delectus et aut.",
		"description": "Laboriosam rerum labore consectetur ut.\nQuas doloremque maxime.\nLabore ipsa quaerat et.",
		"createdAt": "2020-07-01T11:21:31.2046856+00:00",
		"deadline": "2021-01-15T09:46:10.6152844+00:00",
		"authorId": 24,
		"teamId": 8
	},
	{
		"id": 47,
		"name": "Facilis velit omnis ipsam fugiat.",
		"description": "Error et tempore.\nSit et consectetur voluptas repellendus.\nVoluptas sed exercitationem minus similique ullam eligendi.\nDolor consequuntur voluptas qui tempora.\nNon sed qui neque quae occaecati accusantium illo.",
		"createdAt": "2020-06-30T16:36:52.6059595+00:00",
		"deadline": "2021-01-13T17:08:39.6165182+00:00",
		"authorId": 6,
		"teamId": 7
	},
	{
		"id": 48,
		"name": "Fugiat cumque qui ullam ab.",
		"description": "Ut omnis aliquid rem sit architecto.\nVitae veritatis illo in corporis reiciendis sed non ea vel.\nAccusantium minima voluptatem provident impedit.\nQuia veritatis repudiandae laudantium asperiores cupiditate deleniti.\nAb aut aut.",
		"createdAt": "2020-06-30T22:52:49.1956139+00:00",
		"deadline": "2021-06-19T04:07:39.4502929+00:00",
		"authorId": 29,
		"teamId": 8
	},
	{
		"id": 49,
		"name": "Dicta ratione iusto delectus alias.",
		"description": "Est qui ut exercitationem repudiandae sapiente voluptatem iusto numquam.\nQuasi voluptas exercitationem sed neque iusto sunt sed sunt.\nAliquam accusamus quia sapiente dolorem vitae.\nItaque dolores dolorem similique impedit dolorum ea autem praesentium error.\nLaborum occaecati illo et saepe et eveniet consequatur.\nVeniam et quo ut molestiae molestiae.",
		"createdAt": "2020-07-01T04:54:53.9517192+00:00",
		"deadline": "2020-12-17T13:17:57.9857101+00:00",
		"authorId": 29,
		"teamId": 9
	},
	{
		"id": 50,
		"name": "Itaque rem fugiat accusantium vitae.",
		"description": "Dolore ea ratione itaque maxime nihil.\nReprehenderit molestiae illo dignissimos quidem aut aliquam et perferendis.\nEt perferendis nihil deleniti qui minima nesciunt et.",
		"createdAt": "2020-07-01T11:27:45.6625323+00:00",
		"deadline": "2021-01-20T10:22:19.468636+00:00",
		"authorId": 17,
		"teamId": 7
	},
	{
		"id": 51,
		"name": "Dolor quos aut ipsam molestias.",
		"description": "Nam et sed eius voluptas tenetur et.\nSit et nulla officiis officiis blanditiis.\nAutem et debitis et.\nVitae maiores eos.\nQuis dolore dolorem ratione.\nRem quia totam iusto non ut qui.",
		"createdAt": "2020-07-01T09:07:48.2479475+00:00",
		"deadline": "2020-08-12T03:06:06.4807377+00:00",
		"authorId": 40,
		"teamId": 6
	},
	{
		"id": 52,
		"name": "Facilis ut eos debitis quo.",
		"description": "Assumenda deserunt fugit et odio animi porro blanditiis soluta.\nUt pariatur mollitia temporibus aliquid.\nUnde animi vel iusto nisi odit ipsa voluptatem enim.\nEum praesentium dolor nulla quaerat.",
		"createdAt": "2020-07-01T01:58:29.3966483+00:00",
		"deadline": "2020-12-23T01:02:58.9404203+00:00",
		"authorId": 46,
		"teamId": 5
	},
	{
		"id": 53,
		"name": "Omnis ducimus error rerum et.",
		"description": "Libero dolor voluptas.\nMaiores id nostrum sunt deserunt minima suscipit sit voluptate distinctio.\nAt harum qui eius aliquam ad fugiat.\nAccusamus recusandae aut.\nEt commodi voluptatibus quo excepturi porro.",
		"createdAt": "2020-07-01T05:06:42.5289436+00:00",
		"deadline": "2020-10-08T00:02:56.9059448+00:00",
		"authorId": 22,
		"teamId": 3
	},
	{
		"id": 54,
		"name": "Quia enim est ipsum dicta.",
		"description": "Qui saepe dicta minus alias deserunt recusandae quod est laudantium.\nQuo tempore saepe perferendis aut laboriosam quos est est.\nQui corporis eos modi quis ea nemo.",
		"createdAt": "2020-07-01T02:39:47.2441683+00:00",
		"deadline": "2021-05-01T18:29:29.1658775+00:00",
		"authorId": 29,
		"teamId": 1
	},
	{
		"id": 55,
		"name": "In consequuntur est eaque sit.",
		"description": "Est ab aut et magnam rem id officia id.\nMolestiae nemo soluta commodi facilis.\nQuia deserunt rerum molestias porro ut.\nEt architecto vel laborum quaerat unde dolorem reiciendis.\nCum optio tenetur natus deserunt tenetur ab libero dolorum.",
		"createdAt": "2020-07-01T10:04:21.6242806+00:00",
		"deadline": "2021-03-12T21:40:59.9740318+00:00",
		"authorId": 38,
		"teamId": 10
	},
	{
		"id": 56,
		"name": "Ut ea dolorem non impedit.",
		"description": "Quasi sequi beatae sed nihil et.\nOfficiis eos nisi ipsa iusto suscipit natus et maiores.\nDicta dolorem consequatur perspiciatis minima necessitatibus.\nDeleniti et et.",
		"createdAt": "2020-07-01T04:49:07.6432442+00:00",
		"deadline": "2021-04-23T05:04:14.6140816+00:00",
		"authorId": 49,
		"teamId": 8
	},
	{
		"id": 57,
		"name": "Quo voluptas provident quibusdam cupiditate.",
		"description": "Dolores cupiditate dolorem dolor aut ad.\nVoluptatem distinctio nulla quidem quam esse nulla rerum.\nUt temporibus voluptatem.\nInventore quibusdam error.\nEveniet architecto sit sed libero aut omnis odit consequatur asperiores.",
		"createdAt": "2020-07-01T06:41:56.7490973+00:00",
		"deadline": "2021-06-13T03:46:35.5785416+00:00",
		"authorId": 16,
		"teamId": 3
	},
	{
		"id": 58,
		"name": "Rem et commodi nesciunt delectus.",
		"description": "Iste consequatur atque tenetur.\nEt consequatur voluptatem natus ea laboriosam a amet.\nQui quaerat blanditiis est vero.\nProvident illo nihil.\nQui fugiat ut ipsam facilis eligendi eveniet eum voluptates aut.",
		"createdAt": "2020-07-01T05:51:08.4676859+00:00",
		"deadline": "2020-11-02T19:26:27.538702+00:00",
		"authorId": 36,
		"teamId": 6
	},
	{
		"id": 59,
		"name": "Earum quia possimus voluptas consequatur.",
		"description": "Nisi sit vitae quod ea voluptates molestias.\nSunt rerum quas.\nOfficia quis eveniet sunt est et accusamus praesentium excepturi quae.\nEarum voluptatem est quia impedit nobis.\nEst et temporibus quis labore.",
		"createdAt": "2020-07-01T08:39:14.3773617+00:00",
		"deadline": "2021-04-24T21:56:47.5567521+00:00",
		"authorId": 23,
		"teamId": 6
	},
	{
		"id": 60,
		"name": "Dolor reprehenderit quisquam laboriosam dolorem.",
		"description": "Rerum officiis ipsa dicta et tempora itaque quia aspernatur.\nRerum eos quisquam harum nihil.\nNihil et tenetur quaerat sequi corporis magni vitae harum.\nVoluptas dicta quasi.\nImpedit non odit voluptatem dolor sit libero animi voluptatem.\nCorporis laborum consectetur rerum quia voluptatem.",
		"createdAt": "2020-07-01T07:40:07.8646539+00:00",
		"deadline": "2021-05-09T10:49:50.8418094+00:00",
		"authorId": 33,
		"teamId": 1
	},
	{
		"id": 61,
		"name": "Ullam aspernatur numquam in id.",
		"description": "A qui hic ut at odit nemo qui.\nAperiam blanditiis at quis dolores dolorem.\nQuos tenetur perspiciatis aut sit voluptates ipsam voluptatem tempore aut.\nQuos est repellat non expedita eos.\nImpedit ratione ipsam natus qui molestias aut.",
		"createdAt": "2020-07-01T00:24:40.8663727+00:00",
		"deadline": "2020-11-10T06:26:45.1054849+00:00",
		"authorId": 38,
		"teamId": 3
	},
	{
		"id": 62,
		"name": "Et nihil blanditiis voluptatum sed.",
		"description": "Veritatis provident natus ab eos nobis tempora.\nEt illum reiciendis molestiae molestias et quo repellendus molestiae.\nNam recusandae et eaque incidunt dolorem nesciunt accusantium.\nAccusamus corporis voluptatem sit quos minima ut mollitia est.\nExpedita aut et.",
		"createdAt": "2020-07-01T05:03:18.9844185+00:00",
		"deadline": "2020-10-30T13:37:51.2582034+00:00",
		"authorId": 31,
		"teamId": 9
	},
	{
		"id": 63,
		"name": "Eum voluptatem omnis mollitia dicta.",
		"description": "Et qui temporibus.\nAccusantium ullam id.\nAut qui ea ut id et atque voluptatem id quia.\nFacere assumenda libero.\nAnimi saepe nesciunt.\nOdio voluptas magnam enim.",
		"createdAt": "2020-07-01T12:59:09.2837942+00:00",
		"deadline": "2021-04-12T22:38:20.3823625+00:00",
		"authorId": 20,
		"teamId": 10
	},
	{
		"id": 64,
		"name": "Eaque corrupti omnis similique nemo.",
		"description": "Eveniet consequatur aut quasi ad ut ut ipsum quia.\nVoluptatibus dolorem voluptatem magni quam amet.\nAccusamus eos exercitationem ab.",
		"createdAt": "2020-07-01T09:21:57.3842274+00:00",
		"deadline": "2021-05-12T02:54:34.4662473+00:00",
		"authorId": 28,
		"teamId": 6
	},
	{
		"id": 65,
		"name": "Et culpa ducimus distinctio dolorem.",
		"description": "Praesentium consequatur assumenda modi et dolorem aut eveniet ut.\nArchitecto aut et numquam qui dicta dolorum ullam.\nCumque ipsum repellat quo eaque voluptatem qui.\nExpedita nobis qui excepturi ut facere sit impedit aliquam commodi.\nNatus voluptate maiores labore.",
		"createdAt": "2020-07-01T10:48:54.4476015+00:00",
		"deadline": "2021-04-03T21:51:12.7905395+00:00",
		"authorId": 20,
		"teamId": 8
	},
	{
		"id": 66,
		"name": "Omnis earum rerum dolores dolorem.",
		"description": "Recusandae et laudantium exercitationem minus.\nIncidunt repudiandae modi non dicta nesciunt est consequuntur et molestias.\nQuisquam molestiae quod qui porro non.",
		"createdAt": "2020-06-30T22:32:02.3824863+00:00",
		"deadline": "2020-09-27T06:06:20.7212873+00:00",
		"authorId": 17,
		"teamId": 3
	},
	{
		"id": 67,
		"name": "Dolorum ut est amet et.",
		"description": "Illum omnis et.\nEt incidunt voluptas dolores omnis doloremque tempore tempora inventore ut.",
		"createdAt": "2020-07-01T00:21:16.0991631+00:00",
		"deadline": "2020-08-28T11:09:34.1762375+00:00",
		"authorId": 22,
		"teamId": 5
	},
	{
		"id": 68,
		"name": "In dolorum eos eius cumque.",
		"description": "Atque quis laborum earum qui voluptatem praesentium consequatur expedita enim.\nVoluptatem sint sunt.\nVelit est a ut.",
		"createdAt": "2020-06-30T19:57:37.8090274+00:00",
		"deadline": "2021-01-25T09:32:06.06997+00:00",
		"authorId": 6,
		"teamId": 2
	},
	{
		"id": 69,
		"name": "Praesentium sed ea velit tempora.",
		"description": "Animi at voluptatem asperiores ratione eos porro omnis nemo consequatur.\nEius ea incidunt explicabo.\nEveniet nobis quia quia.\nQuaerat et et eos exercitationem voluptatem.",
		"createdAt": "2020-07-01T13:20:09.474415+00:00",
		"deadline": "2020-08-25T13:33:59.3294779+00:00",
		"authorId": 21,
		"teamId": 1
	},
	{
		"id": 70,
		"name": "Ut rem est impedit numquam.",
		"description": "Rerum suscipit eligendi explicabo et saepe ea.\nRepellendus qui consequatur commodi praesentium qui voluptatem quia dignissimos laboriosam.\nConsequatur magni at.",
		"createdAt": "2020-06-30T23:53:26.8683534+00:00",
		"deadline": "2021-01-15T02:13:05.81878+00:00",
		"authorId": 29,
		"teamId": 2
	},
	{
		"id": 71,
		"name": "Reprehenderit reiciendis maxime soluta cupiditate.",
		"description": "Autem quod accusamus sint qui est et exercitationem reiciendis molestias.\nDolor ipsa harum rerum non voluptatem.\nConsequatur neque debitis iure sunt.\nConsequuntur hic odio et vel eos odit ullam quos.\nVitae maiores voluptatem consequatur quae qui.\nQuasi sequi nisi ipsa.",
		"createdAt": "2020-07-01T09:29:10.8446468+00:00",
		"deadline": "2021-04-14T02:43:10.016909+00:00",
		"authorId": 6,
		"teamId": 6
	},
	{
		"id": 72,
		"name": "Voluptas mollitia in sequi quo.",
		"description": "Est architecto iure ducimus ipsum ea sint quo ea sed.\nId unde eveniet veritatis laboriosam.",
		"createdAt": "2020-07-01T02:22:49.1746489+00:00",
		"deadline": "2020-09-24T13:14:36.0610695+00:00",
		"authorId": 32,
		"teamId": 1
	},
	{
		"id": 73,
		"name": "Ut placeat facere nisi nulla.",
		"description": "Laborum perspiciatis nihil qui omnis eum explicabo suscipit beatae nihil.\nNatus quod sequi voluptatem earum voluptas quos.\nDoloremque est nihil aliquam dolorem sint.\nDolore possimus ut quia quae animi enim velit.\nExercitationem optio inventore sint eius.\nNatus maiores sint harum beatae minima.",
		"createdAt": "2020-06-30T19:15:04.8336474+00:00",
		"deadline": "2021-02-24T04:53:44.9291324+00:00",
		"authorId": 46,
		"teamId": 9
	},
	{
		"id": 74,
		"name": "Pariatur ut eum eum voluptates.",
		"description": "Et vitae eos laboriosam iusto facere autem.\nDolore sit at voluptatem et repellendus reiciendis minima in quae.\nLaboriosam sed iusto esse mollitia voluptas explicabo velit.",
		"createdAt": "2020-06-30T16:43:31.6695557+00:00",
		"deadline": "2020-09-11T23:14:08.3001779+00:00",
		"authorId": 13,
		"teamId": 5
	},
	{
		"id": 75,
		"name": "Qui consequatur neque et iusto.",
		"description": "Consequuntur incidunt perspiciatis.\nFugiat hic quibusdam saepe error consequuntur accusamus et.",
		"createdAt": "2020-07-01T13:55:23.6452304+00:00",
		"deadline": "2020-10-02T13:23:11.8937379+00:00",
		"authorId": 17,
		"teamId": 2
	},
	{
		"id": 76,
		"name": "Alias consectetur nam perspiciatis dolores.",
		"description": "Dolor maxime voluptas corporis praesentium.\nVitae aliquid perspiciatis.\nBlanditiis et corrupti autem.",
		"createdAt": "2020-06-30T15:45:37.1837446+00:00",
		"deadline": "2021-05-27T02:31:14.9826294+00:00",
		"authorId": 31,
		"teamId": 5
	},
	{
		"id": 77,
		"name": "Hic non quis voluptas amet.",
		"description": "Quia illo nesciunt et assumenda ut dolorum temporibus.\nConsequatur necessitatibus et facilis laboriosam officiis atque est quia accusamus.\nEsse optio sequi aspernatur qui adipisci maxime unde consequatur.",
		"createdAt": "2020-06-30T19:27:45.065405+00:00",
		"deadline": "2020-07-21T21:28:09.2246334+00:00",
		"authorId": 43,
		"teamId": 6
	},
	{
		"id": 78,
		"name": "Laborum magnam delectus et aut.",
		"description": "Quo dolores animi molestiae perferendis sed qui blanditiis.\nQuae excepturi alias.\nEt ad molestias eveniet inventore.\nIn autem architecto reiciendis fugiat sint suscipit provident.\nDicta voluptates natus.",
		"createdAt": "2020-07-01T01:42:07.8152525+00:00",
		"deadline": "2021-02-28T22:17:54.7818283+00:00",
		"authorId": 28,
		"teamId": 3
	},
	{
		"id": 79,
		"name": "Veniam aspernatur est dicta quae.",
		"description": "Rem voluptas perspiciatis nulla labore.\nSuscipit maxime et.\nQui velit eos voluptas sequi voluptas repudiandae soluta consequatur.",
		"createdAt": "2020-06-30T15:32:54.09343+00:00",
		"deadline": "2021-04-14T17:56:11.8804873+00:00",
		"authorId": 19,
		"teamId": 2
	},
	{
		"id": 80,
		"name": "Nulla qui aut rem asperiores.",
		"description": "Aut laborum sed quas.\nNumquam nostrum tempore aspernatur nihil cumque nisi.\nOptio non aliquid aliquid adipisci consequuntur suscipit vel voluptate.\nOfficia et corporis.",
		"createdAt": "2020-07-01T02:56:40.6158947+00:00",
		"deadline": "2020-10-11T08:28:58.3461188+00:00",
		"authorId": 35,
		"teamId": 4
	},
	{
		"id": 81,
		"name": "Harum laboriosam laboriosam saepe saepe.",
		"description": "Ea neque earum voluptatum labore qui culpa dicta accusantium voluptas.\nQuidem aut placeat ad accusamus architecto ex error sunt.\nCulpa ullam itaque deserunt minima sapiente temporibus.\nAlias hic aut consequatur ex.\nDoloremque amet vero in dolorem blanditiis et eveniet reiciendis quos.\nNostrum eum ea.",
		"createdAt": "2020-07-01T11:19:23.8080229+00:00",
		"deadline": "2020-12-20T04:21:26.9449019+00:00",
		"authorId": 14,
		"teamId": 6
	},
	{
		"id": 82,
		"name": "Enim eum dolor et consequatur.",
		"description": "Dolorum temporibus quisquam voluptatem autem voluptatibus ut placeat omnis et.\nNumquam dolor quod fugit fugit soluta voluptatem dignissimos.\nDoloribus in et saepe id velit voluptatum.\nUt non dolorem.\nAut et sed nam.\nDebitis animi molestias autem perspiciatis fuga fugit temporibus ab.",
		"createdAt": "2020-07-01T06:43:13.5879246+00:00",
		"deadline": "2021-04-03T12:35:18.0661386+00:00",
		"authorId": 30,
		"teamId": 2
	},
	{
		"id": 83,
		"name": "Aspernatur perspiciatis natus ex ut.",
		"description": "Eum veniam delectus quas dolorem.\nUnde beatae et labore dolorem sed ducimus suscipit aut.",
		"createdAt": "2020-07-01T08:07:46.7383503+00:00",
		"deadline": "2021-03-21T13:24:17.8595432+00:00",
		"authorId": 47,
		"teamId": 8
	},
	{
		"id": 84,
		"name": "Hic voluptatem odit nobis et.",
		"description": "Cumque aut dolorum fuga dolorum facilis nesciunt nemo hic mollitia.\nAlias et assumenda beatae aperiam quis vel officia.\nNihil recusandae exercitationem.\nDolorum dolorum cupiditate explicabo eaque est mollitia enim et.\nArchitecto iusto blanditiis debitis.\nOccaecati autem eos eum non dicta recusandae.",
		"createdAt": "2020-07-01T03:53:47.2756143+00:00",
		"deadline": "2020-08-10T04:10:23.0469029+00:00",
		"authorId": 34,
		"teamId": 9
	},
	{
		"id": 85,
		"name": "Illum officiis et quo labore.",
		"description": "Quibusdam alias alias sed veritatis enim tempora repellat voluptatem.\nEa eligendi rerum culpa velit velit.\nCum error omnis.\nId est excepturi.\nEius facere et est dolore dolor maiores nemo dolorum.",
		"createdAt": "2020-07-01T07:44:25.7484041+00:00",
		"deadline": "2021-02-26T14:43:36.1142527+00:00",
		"authorId": 44,
		"teamId": 7
	},
	{
		"id": 86,
		"name": "Ipsam accusamus sequi non voluptas.",
		"description": "Voluptatibus ut nihil voluptate tempore repellat neque tempore.\nQui veritatis ipsam quos.\nNulla sint quia ad architecto.\nQuam iure voluptatem et provident qui nam.",
		"createdAt": "2020-07-01T04:54:55.7019556+00:00",
		"deadline": "2020-11-10T13:36:17.4172454+00:00",
		"authorId": 35,
		"teamId": 4
	},
	{
		"id": 87,
		"name": "Ut eos aut et maiores.",
		"description": "Ab magnam et enim sunt necessitatibus.\nError quia magni rem aliquid fugiat itaque.",
		"createdAt": "2020-06-30T17:33:48.4420276+00:00",
		"deadline": "2021-03-11T11:19:16.86631+00:00",
		"authorId": 48,
		"teamId": 3
	},
	{
		"id": 88,
		"name": "Numquam repellendus officiis sunt sit.",
		"description": "Illum at sunt quia nobis ea vero rem qui modi.\nMaiores odit ullam magni voluptas ut praesentium provident necessitatibus.\nError itaque minima adipisci occaecati.\nEst voluptatem fuga sapiente sint.\nSuscipit enim aperiam quas iure iusto est laborum aut.",
		"createdAt": "2020-07-01T00:18:22.9652246+00:00",
		"deadline": "2020-07-05T15:01:02.4052349+00:00",
		"authorId": 36,
		"teamId": 9
	},
	{
		"id": 89,
		"name": "Dolor exercitationem vitae praesentium ut.",
		"description": "Voluptates harum aliquam sint vel voluptatibus dolorem dolores dicta.\nAdipisci voluptatem ut ipsum.\nAccusantium aspernatur qui qui accusantium aut minima laudantium omnis.\nVoluptate labore laboriosam aut.\nAut est sit quia voluptates cumque sit sed.",
		"createdAt": "2020-06-30T15:39:03.2170067+00:00",
		"deadline": "2021-03-11T03:41:42.9943362+00:00",
		"authorId": 21,
		"teamId": 3
	},
	{
		"id": 90,
		"name": "Non tempore illum ducimus delectus.",
		"description": "Enim voluptatibus rerum voluptatem id doloribus.\nIpsum cumque est ea quod dolorem neque reprehenderit.\nRem recusandae dolor quaerat quasi aut.\nMagni quia possimus numquam placeat temporibus id omnis odio qui.\nNihil impedit dolorem ea qui magni minima provident ipsam molestiae.",
		"createdAt": "2020-07-01T00:23:25.5128986+00:00",
		"deadline": "2020-10-14T03:59:39.2720103+00:00",
		"authorId": 34,
		"teamId": 5
	},
	{
		"id": 91,
		"name": "Dolores enim nisi sint amet.",
		"description": "Quaerat repellat excepturi qui nulla.\nDebitis eum sapiente repudiandae delectus quis necessitatibus blanditiis nobis.\nEt sed est reiciendis.\nEligendi iste voluptas molestias enim repellendus et.",
		"createdAt": "2020-07-01T04:15:28.6412346+00:00",
		"deadline": "2021-01-06T17:42:41.069397+00:00",
		"authorId": 20,
		"teamId": 3
	},
	{
		"id": 92,
		"name": "Molestiae animi dignissimos impedit et.",
		"description": "Ex in voluptatem aliquid excepturi quia vel iste aut qui.\nAd enim sed.\nAutem similique dignissimos libero quidem sed doloribus.",
		"createdAt": "2020-07-01T08:27:49.4755909+00:00",
		"deadline": "2020-10-05T15:49:40.4212631+00:00",
		"authorId": 44,
		"teamId": 6
	},
	{
		"id": 93,
		"name": "Impedit ea quis perferendis aut.",
		"description": "Quia exercitationem culpa iure laboriosam ipsa occaecati magni possimus.\nDolorem corrupti sed rerum quisquam vel aut debitis ut.\nFuga ut consequatur eos quis dolor vero laborum sit ut.\nVoluptatum dignissimos totam doloribus labore ut ea tempora ea ratione.",
		"createdAt": "2020-06-30T22:52:01.0091154+00:00",
		"deadline": "2021-01-01T13:22:26.2647762+00:00",
		"authorId": 39,
		"teamId": 2
	},
	{
		"id": 94,
		"name": "Autem qui impedit doloribus voluptatibus.",
		"description": "Impedit animi sit reiciendis.\nOdio aut iste sit voluptates fugit corrupti at est ipsa.\nTenetur deleniti velit ea et eos quo quia.\nConsectetur eaque voluptates sit voluptatem dolorum aperiam.",
		"createdAt": "2020-07-01T12:13:21.9139706+00:00",
		"deadline": "2021-04-15T13:47:32.0086748+00:00",
		"authorId": 42,
		"teamId": 8
	},
	{
		"id": 95,
		"name": "Quis perferendis ipsam non corporis.",
		"description": "Labore reprehenderit nostrum quia.\nSuscipit aut facere excepturi sunt beatae.\nNulla omnis inventore velit id ea.\nTempora aperiam quis beatae.\nAccusantium sint adipisci ea earum dolorem aut aspernatur.",
		"createdAt": "2020-06-30T18:15:32.7677702+00:00",
		"deadline": "2021-06-25T07:49:49.0572296+00:00",
		"authorId": 33,
		"teamId": 7
	},
	{
		"id": 96,
		"name": "Ad et et in non.",
		"description": "Laudantium quo laboriosam.\nDicta tempora id in consequuntur odit odio sit hic ipsam.\nUllam quos eos dignissimos consequatur ut est.",
		"createdAt": "2020-06-30T21:02:29.4923031+00:00",
		"deadline": "2021-06-23T09:15:00.7577078+00:00",
		"authorId": 26,
		"teamId": 3
	},
	{
		"id": 97,
		"name": "Voluptas dolores officiis est et.",
		"description": "Dolor laborum maiores est asperiores aut magni laboriosam.\nPossimus asperiores perspiciatis praesentium est esse soluta.\nDolores odio vitae qui omnis omnis minus.\nEst molestiae eveniet totam nihil aliquid corrupti quod perspiciatis.\nCumque id laborum et doloremque enim rem possimus non.",
		"createdAt": "2020-07-01T10:44:33.1372628+00:00",
		"deadline": "2021-06-25T21:49:41.3991356+00:00",
		"authorId": 48,
		"teamId": 8
	},
	{
		"id": 98,
		"name": "Repudiandae blanditiis corporis quidem dolor.",
		"description": "Esse fugiat aliquam.\nEnim sit ut officiis rerum voluptate quas et sint.\nPorro architecto a quidem voluptate assumenda fugit alias pariatur placeat.\nMaiores esse maiores aut in quo nemo quia quos ex.\nAliquid omnis tempora nulla beatae mollitia officiis cupiditate deleniti.",
		"createdAt": "2020-07-01T02:19:44.3769203+00:00",
		"deadline": "2020-08-28T04:08:07.9327827+00:00",
		"authorId": 42,
		"teamId": 7
	},
	{
		"id": 99,
		"name": "Vel ut alias est nulla.",
		"description": "Maiores quas ut quis voluptas dolore.\nAtque eligendi adipisci soluta nihil cupiditate pariatur quisquam adipisci.\nError eligendi sint magni quia enim.\nNeque repellendus temporibus harum illo quo sed ad.\nEarum debitis pariatur temporibus earum vitae fugiat.\nReprehenderit eum veniam voluptatum in aut ut expedita.",
		"createdAt": "2020-07-01T09:52:40.7490888+00:00",
		"deadline": "2020-08-25T19:52:02.6956961+00:00",
		"authorId": 30,
		"teamId": 3
	},
	{
		"id": 100,
		"name": "Quam veniam distinctio ut magnam.",
		"description": "Blanditiis incidunt et voluptatibus distinctio ea et qui ut officiis.\nLaudantium deleniti eos dolor quod dolores.",
		"createdAt": "2020-07-01T10:52:03.7392905+00:00",
		"deadline": "2021-06-26T03:25:52.4923848+00:00",
		"authorId": 13,
		"teamId": 8
	}
]