[
	{
		"id": 1,
		"name": "debitis",
		"createdAt": "2020-06-30T20:20:46.3968861+00:00"
	},
	{
		"id": 2,
		"name": "asperiores",
		"createdAt": "2020-06-30T18:46:57.0010953+00:00"
	},
	{
		"id": 3,
		"name": "cupiditate",
		"createdAt": "2020-07-01T03:02:23.1538591+00:00"
	},
	{
		"id": 4,
		"name": "ea",
		"createdAt": "2020-07-01T04:38:51.3579944+00:00"
	},
	{
		"id": 5,
		"name": "amet",
		"createdAt": "2020-06-30T15:19:41.6189004+00:00"
	},
	{
		"id": 6,
		"name": "et",
		"createdAt": "2020-07-01T12:48:42.626433+00:00"
	},
	{
		"id": 7,
		"name": "dolorem",
		"createdAt": "2020-07-01T08:53:27.6541853+00:00"
	},
	{
		"id": 8,
		"name": "incidunt",
		"createdAt": "2020-07-01T06:01:59.7324747+00:00"
	},
	{
		"id": 9,
		"name": "provident",
		"createdAt": "2020-07-01T01:01:56.7807103+00:00"
	},
	{
		"id": 10,
		"name": "earum",
		"createdAt": "2020-07-01T10:12:28.8932914+00:00"
	}
]